ESS elliptic guide
1 6 -1.29E-3 -100 (205:-2:3) (8:24:-3:-62:32:-34) &
 (-8:9:10:-11:12:-13) (42:24:-9:-28:32:-34) &
 #90 #91 #23 #24 #25 #92 #26 #27 #28 #93 &
 #94 #95 #96 #30 #31 #32 #33 #34 #40 #41
2 4 -7.87 -205 2 -3 #21 #22              $ neutron channel surrounding 
c 2 15 -4.887 -1 2 -3 #3 #21                  $ neutron channel surrounding
c 3 2 -1.663E-4 4 -5 -6 7 2 -3          $ neutron channel
c 3 0 2 -3 -52                            $ neutron channel
4 15 -4.883 8 -9 -10 11 -12 13 &
  (-8:9:45:-46:47:-48)                    $ air around chopper 
6 0 51 -37 35 -38 -40 41            $ steel chopper 
7 0 51 -37 -36 39 -40 41            $ steel chopper
8 0 37 -9 35 -38 -40 41 #90            $ steel chopper
c 9 13 -19.1 37 -9 -36 39 -40 41
9 0 37 -9 -36 39 -40 41 #90             $steel chopper
c 10 1 -2.4 -4 43 -6 7 2 -3               $ mirrow hori.
c 11 1 -2.4 5 -44 -6 7 2 -3               $ mirrow hori.
c 12 1 -2.4 2 -3 -7 28 43 -44             $ mirrow vert.
c 13 1 -2.4 2 -3 6 -24 43 -44             $ mirrow vert
14 6 -1.29E-3 8 -9 -45 46 -47 48 &
   #6 #7 #8 #9 #15 #16 #17 #18 #19 #20 #90 $ air
15 15 -4.883 8 -9 38 -49 -45 46           $ steel supporter 
16 15 -4.883 8 -9 -39 50 -45 46           $ steel supporter
17 6 -1.29E-3 8 -9 -45 40 39 -38           $ steel supporter
18 6 -1.29E-3 8 -9 -41 46 39 -38           $ steel supporter
19 0 -51 8 35 -38 -40 41          $ chopper B4C 
20 0 -51 8 -36 39 -40 41          $ chopper B4C
c 21 4 -7.87 -53 2 -3 #3                $ neutron channel surrounding
21 0 -54 55 -56 57 2 -103               $ beam port
22 0 -74 75 -76 77 103 -3               $ beam port
23 15 -4.883 -1 9 -110 #24 #25          $ shielding 0/2
24 0 105 -106 107 -108 9 -104           $ beam port second part 1/2
25 0 111 -112 113 -114 104 -110         $ beam port second part 2/2
26 15 -4.883 -1 120 -122 #28 #32          $ shielding 0/3
27 0 161 -162 163 -164 110 -120 #96 #92        $ vacuum between shielding
28 0 130 -131 132 -133 121 -122                $ beam port second part 2/3
30 16 -4.883 -151 110 -150 #27                 $ shielding slit 2
31 16 -4.883 -151 152 -120 #27                 $ shielding slit 3
32 0 111 -112 113 -114 120 -121                $ beam port second part 1/3
33 16 -4.883 -151 122 -170 #34                 $ shielding slit 3
34 0 180 -181 182 -183 122 -170                $ opening in slit 3
40 16 -4.883 201 -202 1 -200            $ shielding around Pos 2
41 16 -4.883 203 -204 1 -200            $ shielding around Pos 2
90 0 -101                               $ tally behind shutter
91 0 -102                               $ center
92 0 -115                               $ exit second shielding
93 0 -140                               $ tally shielding exit
94 0 -141                               $ shielding exit center
95 0 -142                               $ shielding exit center + 5m
96 0 -143                               $ shielding entrance last section
c first tally line
100 0 3 -8 -24 23 34 -33
101 0 3 -8 -24 23 33 -30
102 0 3 -8 -24 23 30 -31
103 0 3 -8 -24 23 31 -32
c second line
104 0 3 -8 -23 22 34 -33
105 0 3 -8 -23 22 33 -30
106 0 3 -8 -23 22 30 -31
107 0 3 -8 -23 22 31 -32
c third line
108 0 3 -8 -22 21 34 -33
109 0 3 -8 -22 21 33 -30
110 0 3 -8 -22 21 30 -31
111 0 3 -8 -22 21 31 -32
c 4. line
112 0 3 -8 -21 20 34 -33
113 0 3 -8 -21 20 33 -30
114 0 3 -8 -21 20 30 -31
115 0 3 -8 -21 20 31 -32
c 5. line
116 0 3 -8 -20 25 34 -33
117 0 3 -8 -20 25 33 -30
118 0 3 -8 -20 25 30 -31
119 0 3 -8 -20 25 31 -32
c 6.line
120 0 3 -8 -25 26 34 -33
121 0 3 -8 -25 26 33 -30
122 0 3 -8 -25 26 30 -31
123 0 3 -8 -25 26 31 -32
c 7.line
124 0 3 -8 -26 27 34 -33
125 0 3 -8 -26 27 33 -30
126 0 3 -8 -26 27 30 -31
127 0 3 -8 -26 27 31 -32
c 8.line
128 0 3 -8 -27 28 34 -33
129 0 3 -8 -27 28 33 -30
130 0 3 -8 -27 28 30 -31
131 0 3 -8 -27 28 31 -32
c 9.line
132 0 3 -8 -28 60 34 -33
133 0 3 -8 -28 60 33 -30
134 0 3 -8 -28 60 30 -31
135 0 3 -8 -28 60 31 -32
c 10.line
136 0 3 -8 -60 61 34 -33
137 0 3 -8 -60 61 33 -30
138 0 3 -8 -60 61 30 -31
139 0 3 -8 -60 61 31 -32
c 11.line
140 0 3 -8 -61 62 34 -33
141 0 3 -8 -61 62 33 -30
142 0 3 -8 -61 62 30 -31
143 0 3 -8 -61 62 31 -32
c first tally line behind
150 0 9 -42 -24 23 34 -33
151 0 9 -42 -24 23 33 -30
152 0 9 -42 -24 23 30 -31
153 0 9 -42 -24 23 31 -32
c second line
154 0 9 -42 -23 22 34 -33
155 0 9 -42 -23 22 33 -30
156 0 9 -42 -23 22 30 -31
157 0 9 -42 -23 22 31 -32
c third line
158 0 9 -42 -22 21 34 -33
159 0 9 -42 -22 21 33 -30
160 0 9 -42 -22 21 30 -31
161 0 9 -42 -22 21 31 -32
c 4. line
162 0 9 -42 -21 20 34 -33
163 0 9 -42 -21 20 33 -30
164 0 9 -42 -21 20 30 -31
165 0 9 -42 -21 20 31 -32
c 5. line
166 0 9 -42 -20 25 34 -33
167 0 9 -42 -20 25 33 -30
168 0 9 -42 -20 25 30 -31
169 0 9 -42 -20 25 31 -32
c 6.line
170 0 9 -42 -25 26 34 -33
171 0 9 -42 -25 26 33 -30
172 0 9 -42 -25 26 30 -31
173 0 9 -42 -25 26 31 -32
c 7.line
174 0 9 -42 -26 27 34 -33
175 0 9 -42 -26 27 33 -30
176 0 9 -42 -26 27 30 -31
177 0 9 -42 -26 27 31 -32
c 8.line
178 0 9 -42 -27 28 34 -33
179 0 9 -42 -27 28 33 -30
180 0 9 -42 -27 28 30 -31
181 0 9 -42 -27 28 31 -32
200 0 100                $ outside

1 cx  200.0
2 px  -624.4
3 px -224.4
4 1 py 0.0
5 2 py 0.0
6 pz 7.5
7 pz -7.5
8 px -214.4
9 px -164.4
10 pz 50.0
11 pz -50.0
12 py 50.0
13 py -50.0
20 pz -17.5
21 pz -12.5
22 pz -7.5
23 pz -2.5
24 pz 2.5
25 pz -23.5
26 pz -27.5
27 pz -32.5
28 pz -37.5
30 py -7.5
31 py -2.5
32 py 2.5
33 py -12.5
34 py -17.5
35 py 0.0
36 py 0.0
37 px -199.1
38 py 3.2
39 py -3.2
40 pz 3.2
41 pz -3.2
42 px -193.8
43 1 py -0.3 
44 2 py 0.3
45 pz 11.25
46 pz -11.25
47 py 10.1
48 py -10.1
49 py 10.0
50 py -10.0
51 px -213.4
c 52 ell -422 0 0 220 0 0 -3
c 52 cx 6.0
53 cx 10.0
54 3 py -4.8
55 4 py 4.8
56 6 pz -4.8
57 7 pz 4.8
60 pz -42.5
61 pz -47.5
62 pz -52.5
c 74 9 py  6.8
c 75 8 py -6.8
c 76 11 pz  6.8
c 77 10 pz -6.8
74 4 py  5.8
75 3 py -5.8
76 7 pz  5.8
77 6 pz -5.8
100 so 3000.0
101 sx -170 2.5
102 sx 610.0 2.5
103 px -404.4
104 px 195.6
105 12 py -8.4
106 12 py 7.8
107 13 pz -8.4
108 13 pz 7.8
110 px 555.6
111 14 py -0.4
112 14 py 15.8
113 15 pz -0.4
114 15 pz 15.8
115 s 610.0 -18.4 -18.4 2.5
120 px 1035.6
121 px 1395.6
122 px 2055.6
130 12 py -56.5
131 12 py -40.3
132 13 pz -56.5
133 13 pz -40.3
140 s 2115.0 -53.4 -53.4 2.5
141 sx 2115.0 5.
142 sx 2615.0 5.
143 s 975.0 -34 -34 2.5
150 px 605.6
151 cx 150.0
152 px 985.6
161 14 py 4.5
162 14 py 10.9
163 15 pz 4.5
164 15 pz 10.9
170 px 2105.6
180 12 py -51.6
181 12 py -45.2
182 13 pz -51.6
183 13 pz -45.2
200 cx  250.0
201 px 505.6
202 px 1085.6
203 px 2005.6
204 px 2305.6
205 cx 400.0

c left side
*TR1  0. 0. 0. 0.383 -89.617 90. 90.383 0.383 90. 90. 90. 0.
*TR2  0. 0. 0. -0.383 -90.383 90. 89.617 -0.383 90. 90. 90. 0.
*TR3  0. 0. 0. -0.75 -90.75 90. 89.25 -0.75 90. 90. 90. 0.
*TR4  0. 0. 0. 0.75 -89.25 90. 90.75 0.75 90. 90. 90. 0.
*TR6  0. 0. 0. 0 -90 90.75 90 0 90. 89.25 90. -0.75
*TR7  0. 0. 0. 0 -90 89.25 90 0 90. 90.75 90. 0.75
c *TR8  0. 0. 0. -0.9 -90.9 90. 89.1 -0.9 90. 90. 90. 0.
c *TR9  0. 0. 0. 0.9 -89.1 90. 90.9 0.9 90. 90. 90. 0.
c *TR10  0. 0. 0. 0 -90 90.9 90 0 90. 89.1 90. -0.9
c *TR11  0. 0. 0. 0 -90 89.1 90 0 90. 90.9 90. 0.9
*TR12  0. 0. 0. -0.15 -90.15 90. 89.85 -0.15 90. 90. 90. 0.
*TR13  0. 0. 0. 0 -90 90.15 90 0 90. 89.85 90. -0.15
*TR14  0. 0. 0. -2.45 -92.45 90. 87.55 -2.45 90. 90. 90. 0.
*TR15  0. 0. 0. 0 -90. 92.45 90 0 90. 87.55 90. -2.45
c
c        predicted flux. to 3E13 n/cm2/s/sr (integrated cold neutron flux ESS) and 
  c        source area 12x12 cm2 4.32E15
c        norm to full spectrum 2*4.32e15 
c        - valid for 5MW ESS 
c        norm to n/cm2/s  source 0.0239 sr (10x10gr)
c        factor: 2.06E14 
fc4      neutron flux at the end of guide 
f4:n     103 90 91 92 93 94 95 96
e4       1e-10 1.58e-10 2.51e-10 3.98e-10 6.31e-10
         1e-9 1.58e-9 2.51e-9 3.98e-9 6.31e-9 
         1e-8 1.58e-8 2.51e-8 3.98e-8 6.31e-8 
         1e-7 1.58e-7 2.51e-7 3.98e-7 6.31e-7 
         1e-6 1.58e-6 2.51e-6 3.98e-6 6.31e-6 
         1e-5 1.58e-5 2.51e-5 3.98e-5 6.31e-5 
         1e-4 1.58e-4 2.51e-4 3.98e-4 6.31e-4 
         1e-3 1.58e-3 2.51e-3 3.98e-3 6.31e-3 
         1e-2 1.58e-2 2.51e-2 3.98e-2 6.31e-2 
         1e-1 1.58e-1 2.51e-1 3.98e-1 6.31e-1 
         1e-0   1.58    2.51    3.98    6.31 
         1e+1 1.58e+1 2.51e+1 3.98e+1 6.31e+1 
         1e+2 1.58e+2 2.51e+2 3.98e+2 6.31e+2 
fq4 e f
fm4      2.06e14
fc14     Photon Dose [muSv/h] - chopper 
c        2.06E14 n/cm2/s * 1E6
f14:p    103 90 91 92 93 94 95 96
de14     0.01 0.015 0.02 0.03 0.04 0.05 0.06 0.08 0.1 0.15
         0.2 0.3 0.4 0.5 0.6 0.8 1.0 1.5 2.0 3.0
         4.0 5.0 6.0 8.0 10.0 50.0
df14     iu=2 ic=31 fac
e14      0.01 0.015 0.02 0.03 0.04 0.05 0.06 0.08 0.1 0.15
         0.2 0.3 0.4 0.5 0.6 0.8 1.0 1.5 2.0 3.0
         4.0 5.0 6.0 8.0 10.0 50.0
fm14     2.06e20
fq14 e f
fc24     Neutron Dose [muSv/h] 
c        Personendosimetrieverordnung 814.501.43 (2001)
c        2.06E14*3600*1E-6
c        Konversion-factors in pSv 10^-12 
f24:n    103 90 91 92 93 94 95 96
de24     2.5e-8 0.024 0.144 0.25 0.57 1.2 2.5 2.8 3.2 5.0
         14.8 19.0 30.0 50.0 75.0 100.0 500.0 
df24     11.4 20.2 134 215 355 433 437 433 429 420
         561 600 515 400 330 285 300
e24      2.5e-8 0.024 0.144 0.25 0.57 1.2 2.5 2.8 3.2 5.0
         14.8 19 30 50 75 100 500
fm24     7.43e11 
fc34      neutron flux in front of chopper (reference)
f34:n    103 90 91 92 93 94 95 96 
e34      1e-10 1.58e-10 2.51e-10 3.98e-10 6.31e-10
         1e-9 1.58e-9 2.51e-9 3.98e-9 6.31e-9 
         1e-8 1.58e-8 2.51e-8 3.98e-8 6.31e-8 
         1e-7 1.58e-7 
fq34 e f
fm34     2.06e14
c 
prdmp j 1E8 1 4 1E8
print
c glas
c m1  8016.60c -0.4598 11023.60c -0.096441 14000.60c -0.336563 &
c    20000.60c -0.107205   
c Helium
c m2   2004.42c 1.0
c
c boriertes Polyethylen (5 Gew.% B4C)
c m3    1001.60c -0.1183 5010.60c -0.0268 5011.60c -0.1077 6000.60c -0.7472
c mt3   poly.01t
c
c St37
m4 26000.50c -0.9693 6000.60c -0.0017 25055.60c -0.014 &
   14000.60c -0.005 29000.50c -0.005 28000.50c -0.005
c
c EP + B4C 50%-50% 1.8g/cm3
c m5 5010.60c -0.0782 5011.60c -0.313 6000.60c -0.2752 8016.60c -0.1665 &
c   1001.60c -0.1665
c
c air (1.29E-3 g/cm3)
m6   7014.60c 0.8 8016.60c 0.2
c
c B4C (2.506 g/cc)
c m7    5010.60c -0.1565 5011.60c -0.6260 6000.60c -0.2175   
c
c boriertes Polyethylen (5 Gew.% B4C PSI)
c m8    1001.60c -0.1183 5010.60c -0.0268 5011.60c -0.1077 6000.60c -0.7472
c mt8   poly.01t
c
c boriertes Polyethylen (5 Gew.% B4C 0.94 g/cc) FRM-II
c m9    1001.60c -0.135595 5010.60c -1.00065E-2 5011.60c -4.00433E-2 &
c      6000.60c -0.814356
c mt9   poly.01t
c
c steel 1.4301 (7.9 g/cc)
c m10 26000.50c -0.67355 6000.60c -0.0007 25055.50c -0.02 &
c   14000.50c -0.01 28000.50c -0.105 24000.50c -0.19 &
c   16000.60c -0.0003 15031.60c -0.00045
c
c lead + 5% SB
c m10 82000.50c -0.96 51000.42c -0.04 
c AL 1100 alloy
c m11 5010.60c -0.04275 5011.60c -4.75E-3 13027.50c -0.942967 &
c    14000.50c -4.775E-3 25055.50c -4.775E-4 26000.21c -4.775E-3 &
c    29000.50c -1.91E-3 30000.40c -9.55E-5 
c AL 6351 alloy + 2 % B
c m12 5010.60c -0.019 5011.60c -1.0E-3 12000.50c -7.04E-3 &
c    13027.50c -0.849 14000.50c -1.144E-2 22000.50c -0.1 &
c    25055.50c -7.04E-3 26000.50c -4.4E-3 &
c    29000.50c -8.8E-4 30000.40c -1.76E-4
c Tungsten 19.1 g/cm3
c m13 74000.21c 1.0
c concrete shielding SIEMENS (2.5 g/cc)
c m11 1001.60c -3.3E-3 8016.60c -5.597E-1 13027.60c -4.86E-2 &
c    14000.60c -1.942E-1 20000.60c -1.942E-1
c bor-float glass 13% B2O3
c m12  8016.60c -0.4078 11023.60c -0.096441 14000.60c -0.336563 &
c    20000.60c -0.107205 5010.60c -0.0104 5011.60c -0.0416 
c High Density Concrete (4.883 g/cc) PSI with B4C
m15   1001.60c -0.004395
      8016.60c -0.184241
      26000.50c -0.765413
      20000.60c -0.002704
      14000.60c -0.020705
      13027.60c -0.002077
      5010.60c -0.003204 
      5011.60c -0.01282
      6000.60c -0.004446
c High Density Concrete (4.883 g/cc) PSI with B4C
m16   1001.60c -0.004395
      8016.60c -0.184241
      26000.50c -0.765413
      20000.60c -0.002705
      14000.60c -0.020704
      13027.60c -0.002077
      5010.60c -0.003204 
      5011.60c -0.01282
      6000.60c -0.004446
c
phys:p 50
phys:n 3000
mode n p
imp:n,p   1 111r 0 
nps 2.5e10
c CTME 15.0
c
c Source definition:
sdef x=-824.0 y=d2 z=d3 dir=d4 vec=1 0 0 erg=d1 par=n
si2   h  -6.0 6.0
sp2       0   1 
si3   h  -6.0 6.0
sp3       0   1
si4   h   0.996195 1
sp4       0   1
si1   h
         1E-10
         1.58E-10
         2.51E-10
         3.98E-10
         6.31E-10
         1E-9
         1.58E-9
         2.51E-9
         3.98E-9
         6.31E-9
         1E-8
         1.58E-8
         2.51E-8
         3.98E-8
         6.31E-8
         1E-7
         1.58E-7
         2.51E-7
         3.98E-7
         6.31E-7
         1E-6
         1.58E-6
         2.51E-6
         3.98E-6
         6.31E-6
         1E-5
         1.58E-5
         2.51E-5
         3.98E-5
         6.31E-5
         1E-4
         1.58E-4
         2.51E-4
         3.98E-4
         6.31E-4
         1E-3
         0.00158
         0.00251
         0.00398
         0.00631
         0.01
         0.0158
         0.0251
         0.0398
         0.0631
         0.1
         0.158
         0.251
         0.398
         0.631
         1.0
         1.58
         2.51
         3.98
         6.31
         10
         15.8
         25.1
         39.8
         63.1
         100
         158
         251
         398
         631
         1000
         1580
         2510
 sp1  d
      0
      2.79821E-4
      5.93213E-4
      0.00127
      0.00262
      0.00545
      0.01075
      0.02031
      0.03573
      0.0559
      0.07532
      0.08479
      0.05166
      0.0299
      0.02074
      0.01629
      0.01409
      0.01213
      0.01056
      0.01226
      0.01243
      0.01241
      0.01261
      0.01263
      0.01266
      0.01273
      0.01269
      0.0129
      0.01291
      0.01294
      0.01296
      0.01288
      0.013
      0.01294
      0.01286
      0.0128
      0.01265
      0.01273
      0.01261
      0.0125
      0.01249
      0.01247
      0.01284
      0.01284
      0.0137
      0.01464
      0.01657
      0.01883
      0.02218
      0.02334
      0.02392
      0.02069
      0.01767
      0.01356
      0.01176
      0.00986
      0.00757
      0.00561
      0.00416
      0.00349
      0.00286
      0.0019
      9.4472E-4
      2.98484E-4
      6.64051E-5
      1.33075E-5
      1.86101E-6
      9.65475E-7

