OFF
68	17	68
0	0.425	0.185
0	0.25	0.075
0	0.32	0.05
0	0.55	0.05
0.0543974601679762	0.425	0.176821707737691
0.0220530243924228	0.25	0.0716844761098748
0.0147020162616152	0.32	0.0477896507399165
0.0147020162616152	0.55	0.0477896507399165
0.103985424902644	0.425	0.153009906240794
0.0421562533389098	0.25	0.0620310430705921
0.0281041688926065	0.32	0.0413540287137281
0.0281041688926065	0.55	0.0413540287137281
0.144379625357591	0.425	0.115669891422105
0.0585322805503747	0.25	0.0468931992251779
0.0390215203669165	0.32	0.0312621328167853
0.0390215203669165	0.55	0.0312621328167853
-0.0543974601679762	0.425	0.176821707737691
-0.0220530243924228	0.25	0.0716844761098748
-0.0147020162616152	0.32	0.0477896507399165
-0.0147020162616152	0.55	0.0477896507399165
-0.103985424902644	0.425	0.153009906240794
-0.0421562533389098	0.25	0.0620310430705921
-0.0281041688926065	0.32	0.0413540287137281
-0.0281041688926065	0.55	0.0413540287137281
-0.144379625357591	0.425	0.115669891422105
-0.0585322805503747	0.25	0.0468931992251779
-0.0390215203669165	0.32	0.0312621328167853
-0.0390215203669165	0.55	0.0312621328167853
0	0.25	0.075
0	0.32	0.05
0.0147020162616152	0.32	0.0477896507399165
0.0220530243924228	0.25	0.0716844761098748
0.0220530243924228	0.25	0.0716844761098748
0.0147020162616152	0.32	0.0477896507399165
0.0281041688926065	0.32	0.0413540287137281
0.0421562533389098	0.25	0.0620310430705921
0.0421562533389098	0.25	0.0620310430705921
0.0281041688926065	0.32	0.0413540287137281
0.0390215203669165	0.32	0.0312621328167853
0.0585322805503747	0.25	0.0468931992251779
0	0.25	0.075
0	0.32	0.05
-0.0281041688926065	0.32	0.0413540287137281
-0.0421562533389098	0.25	0.0620310430705921
-0.0421562533389098	0.25	0.0620310430705921
-0.0281041688926065	0.32	0.0413540287137281
-0.0390215203669165	0.32	0.0312621328167853
-0.0585322805503747	0.25	0.0468931992251779
0	0.55	0.05
0	0.425	0.185
0.0543974601679762	0.425	0.176821707737691
0.0147020162616152	0.55	0.0477896507399165
0.0147020162616152	0.55	0.0477896507399165
0.0543974601679762	0.425	0.176821707737691
0.103985424902644	0.425	0.153009906240794
0.0281041688926065	0.55	0.0413540287137281
0.0281041688926065	0.55	0.0413540287137281
0.103985424902644	0.425	0.153009906240794
0.144379625357591	0.425	0.115669891422105
0.0390215203669165	0.55	0.0312621328167853
0	0.55	0.05
0	0.425	0.185
-0.103985424902644	0.425	0.153009906240794
-0.0281041688926065	0.55	0.0413540287137281
-0.0281041688926065	0.55	0.0413540287137281
-0.103985424902644	0.425	0.153009906240794
-0.144379625357591	0.425	0.115669891422105
-0.0390215203669165	0.55	0.0312621328167853
4	0	1	2	3	0
4	4	5	6	7	0
4	8	9	10	11	0
4	12	13	14	15	0
4	16	17	18	19	0
4	20	21	22	23	0
4	24	25	26	27	0
4	28	29	30	31	0
4	32	33	34	35	0
4	36	37	38	39	0
4	40	41	42	43	0
4	44	45	46	47	0
4	48	49	50	51	0
4	52	53	54	55	0
4	56	57	58	59	0
4	60	61	62	63	0
4	64	65	66	67	0
