\begin{thebibliography}{10}

\bibitem{russel}
G.~Russel et~al.
\newblock Shielding concerns at a spallation source.
\newblock {\em Proceedings of the ICANS-X Conference, Los Alamos, NM}, 1988.

\bibitem{gaudio}
M.~Livan G.~Gaudio and R.~Wigmans.
\newblock {\em Proceedings of the International School of Physics Enrico
  Fermi}, 175:31--77, 2009.

\bibitem{volk}
H.~Volk and K.~Bernlohr.
\newblock {\em Exp. Astr.}, 25:173--191, 2009.

\bibitem{cherkashyna2013}
N.~Cherkashyna et~al.
\newblock High energy particle background at neutron spallation sources and
  possible solutions.
\newblock {\em J. Phys.: Conf. Ser.}, 528:012013, 2014.

\bibitem{mcnp}
A general monte carlo n-particle (mcnp) transport code.
\newblock \url{https://mcnp.lanl.gov/}.

\bibitem{TDR}
Editor S.~Peggs.
\newblock Ess technical design report, 2013.

\bibitem{agostinelli}
S.~Agostinelli.
\newblock {\em Nucl. Instum. and Methods in Phys. Res. A}, 506:250--303, 2003.

\bibitem{speckmayer}
P.~Speckmayer.
\newblock Impact of the choice of physics list on geant4 simulations of
  hadronic showers in tungsten.
\newblock {\em LCD-Note-2010-002}, 2010.

\bibitem{borkron}
Bk-7 optical glass.
\newblock \url{http://www.newportglass.com/amsbk7.htm}.

\bibitem{cost-benefit}
Phillip Bentley.
\newblock An initial cost-benefit analysis for instrument optics and shielding
  draft, ess internal report.

\end{thebibliography}
