# Source
# Moderators:  center size  distribution files  time
# Temp. col shape  x    y    z  wid|dia height order tot_flux curr w-file t-file wt-file  Mod tau_a tau_d   pfmc
325.0 1 R 0.0 5.3 0.0 10.6 3.0 1 0.0 0.0 none none none 3 0 0 1.0 
50.0 2 R 0.0 -3.5 0.0 7.0 3.0 1 0.0 0.0 none none none 3 0 0 1.0 
