# Source
# Moderators:  center size  distribution files  time
# Temp. col shape x y z wid|dia hei spaord tot_flux curr w-file t-file wt-file  Mod tau_a tau_d
325.0 1 R 0.0 0.0 0.0 10 3 1 0.0 0.0 none none none 3 0 0 
50.0 2 R 0.0 0.0 0.0 10 3 1 0.0 0.0 none none none 3 0 0 
